{ 
	"@context": "https://w3id.org/ro/crate/1.0/context", 
	"@graph": [
		{
			"@type": "CreativeWork",
			"@id": "ro-crate-metadata.jsonld",
			"conformsTo": {"@id": "https://w3id.org/ro/crate/1.0"},
			"identifier": "ro-crate-metadata.jsonld",
			"about": {"@id": "./"}
		},
		{
			"@id": "./",
			"@type": "Dataset",
			"name": "Collection of images to demonstrate a basic usage of RO-Crate principles",
			"description": "A sample of an RO-Crate built to demonstrate the basic usage of principles. This sample contains a few random images from the internet packaged into an RO-Crate format",
			"datePublished": "2020-04-07",
			"license": {"@id": "https://creativecommons.org/licenses/by-nc-sa/3.0/au/"},
			"author": {"@id": "https://orcid.org/some-code-of-numbers-for-ben-mcdonnell"},
			"path": "./",
			"hasPart": [
				{ "@id": "additional_files" },
				{ "@id": "images" }
			],
			"contentLocation": { "@id": "#crate_level_location" }
		},
		{
			"@id": "#crate_level_location",
			"@type": "Place",
			"startDate": 1852,
			"geo": { "@id": "#crate_level_location_geo" },
			"name": "University of Technology, Sydney"
		},
		{
			"@id": "#crate_level_location_geo",
			"@type": "GeoCoordinates",
			"latitude": "-33.883",
			"longitude": "151.199",
			"name": "Latitude: -33.883, Longitude: 151.199"
		},
		{
		  "@id": "https://orcid.org/some-code-of-numbers-for-ben-mcdonnell",
		  "@type": "Person",
		  "contactPoint": {
			"@id": "mailto:ben.mcdonnell@newcastle.edu.au"
		  },
		  "familyName": "McDonnell",
		  "givenName": "Benjamin",
		  "identifier": "https://orcid.org/some-code-of-numbers-for-ben-mcdonnell",
		  "name": "Benjamin McDonnell",
		  "contentLocation": { "@id": "#ben_location" }
		},
		{
		  "@id": "mailto:ben.mcdonnell@newcastle.edu.au",
		  "@type": "ContactPoint",
		  "contactType": "General Enquiries",
		  "email": "ben.mcdonnell@newcastle.edu.au",
		  "identifier": "ben.mcdonnell@newcastle.edu.au",
		  "url": "https://orcid.org/some-code-of-numbers-for-ben-mcdonnell"
		},
		{
			"@id": "#ben_location",
			"@type": "Place",
			"geo": { "@id": "#ben_location_geo" },
			"name": "Ben's Location"
		},
		{
			"@id": "#ben_location_geo",
			"@type": "GeoCoordinates",
			"latitude": "-32.9245",
			"longitude": "151.6133"
		},
		{
		  "@id": "https://creativecommons.org/licenses/by-nc-sa/3.0/au/",
		  "@type": "CreativeWork",
		  "description": "This work is licensed under the Creative Commons Attribution-NonCommercial-ShareAlike 3.0 Australia License. To view a copy of this license, visit http://creativecommons.org/licenses/by-nc-sa/3.0/au/ or send a letter to Creative Commons, PO Box 1866, Mountain View, CA 94042, USA.",
		  "identifier": "https://creativecommons.org/licenses/by-nc-sa/3.0/au/",
		  "name": "Attribution-NonCommercial-ShareAlike 3.0 Australia (CC BY-NC-SA 3.0 AU)"
		},
		{
		  "@id": "images",
		  "@type": "Dataset",
		  "description": "This directory contains images that will be explicitly specified in the metadata",
		  "hasPart": [
			{
			  "@id": "ro-crate_logo"
			},
			{
			  "@id": "uts_logo_1.png"
			}
		  ],
		  "identifier": "./data/images/",
		  "name": "Images"
		},
		{
			"@id": "ro-crate_logo",
			"@type": "File",
			"contentSize": "5257",
			"description": "The logo for ro-crate in a png format",
			"encodingFormat": "image/png",
			"identifier": "./data/images/ro-crate_logo.png",
			"name": "RO-Crate Logo",
			"contentLocation": { "@id": "#logo_location" }
		},
		{
			"@id": "#logo_location",
			"@type": "Place",
			"geo": { "@id": "#logo_location_geo" }
		},
		{
			"@id": "#logo_location_geo",
			"@type": "GeoCoordinates",
			"latitude": "-33.883",
			"longitude": "151.205"
		},
		{
			"@id": "uts_logo_1.png",
			"@type": "File",
			"contentSize": "2792",
			"description": "The UTS Logo",
			"encodingFormat": "image/png",
			"identifier": "./data/images/uts_logo_1.png",
			"name": "UTS Logo"
		},
		{
			"@id": "additional_files",
			"@type": "Dataset",
			"description": "This directory contains the several additional images not specified above",
			"name": "Additional image data files",
			"identifier": "./data/images/additional_files/"
		}
	]
}